<?xml version="1.0" encoding="UTF-8"?>
<session version="1.0">
<refactoring comment="Delete resource &apos;LaunchBrowser/driver/chromedriver.exe&apos;" deleteContents="false" description="Delete resource &apos;LaunchBrowser/driver/chromedriver.exe&apos;" element1="/LaunchBrowser/driver/chromedriver.exe" flags="7" id="org.eclipse.ltk.core.refactoring.delete.resources" resources="1" stamp="1709203035059"/>
</session>